{
    "request": {
        "message": "Activer sur",
        "description": "Request permission button label"
    },

    "remove": {
        "message": "Désactiver",
        "description": "Remove permission button label"
    }
} 
